Django==1.9.6
Django-Select2==5.8.5
IPy==0.83
Markdown==2.6.5
Pillow==3.0.0
PyJWT==1.4.0
PyYAML==3.11
Pygments==2.0.2
Unidecode==0.04.19
app-version==0.2.1
argparse==1.4.0
cached-property==1.3.0
chardet==2.2.1
cmsplugin-filer==1.0.1
colorama==0.3.5
crispy-forms-foundation==0.5.4
dateutils==0.6.6
defusedxml==0.4.1
diff-match-patch==20121119
django-admin-sortable2==0.6.4
django-allauth==0.24.1
django-angular==0.8.0
django-annoying==0.9.0
django-appconf==1.0.1
django-autoslug==1.9.3
django-avatar==2.2.0
django-bootstrap-breadcrumbs==0.7.3
django-braces==1.8.1
django-choices==1.4.2
django-ckeditor==5.0.3
django-ckeditor-filebrowser-filer==0.1.1.post1
django-classy-tags==0.7.2
django-compat==1.0.8
django-cors-headers==1.1.0
django-countries==3.4.1
django-crispy-forms==1.6.0
django-debug-toolbar==1.4
django-el-pagination==2.1.2
django-email-extras==0.3.3
django-environ==0.4.0
django-extensions==1.5.9
django-filebrowser==3.7.1
django-filer==1.2.0
django-filter==0.11.0
django-fluent-contents==1.1.4
django-fluent-utils==1.2.3
django-forms-builder==0.12.3
django-formtools==1.0
django-geoposition==0.2.2
django-grappelli==2.8.1
django-hijack==2.0.0
django-import-export==0.4.5
django-jsonview==1.0.0
django-localflavor==1.2
django-localflavor-us==1.1
django-maintenance-mode==0.3.1
django-messages==0.5.1
django-meta==1.3
django-model-utils==2.5
django-modeltranslation==0.11
django-modeltranslation-wrapper==1.2.2
django-mptt==0.8.4
django-nested-admin==3.0.8
django-notification==1.3.3
django-oauth-toolkit==0.10.0
django-oauth2-provider==0.2.6.1
django-parler==1.6.3
django-permission==0.9.2
django-polymorphic==0.8.1
django-postman==3.3.1
django-rest-framework-braces==0.1.6
django-reversion==1.10.2
django-scheduler==0.8
django-sekizai==0.9.0
django-sessioninfo==0.0.3
django-subdomains==2.1.0
django-tag-parser==2.1
django-template-analyzer==1.6.1
django-treebeard==4.0.1
django-url-filter==0.2.0
django-user-accounts==1.3.1
django-watchman==0.10.1
django-wysiwyg==0.7.1
djangocms-admin-style==1.2.2
djangorestframework==3.3.3
djangorestframework-jwt==1.8.0
djangorestframework-oauth==1.1.0
easy-thumbnails==2.3
enum34==1.1.6
et-xmlfile==1.0.1
factory-boy==2.6.0
fake-factory==0.5.3
future==0.15.0
html5lib==0.9999999
httpie==0.9.2
icalendar==3.10
jdcal==1.2
language-selector==0.1
oauthlib==1.0.3
openpyxl==2.3.2
pdfkit==0.5.0
pycurl==7.19.3
pygobject==3.12.0
python-apt==0.9.3.5ubuntu2
python-dateutil==2.4.2
python-gnupg==0.3.8
python-monkey-business==1.0.0
python3-openid==3.0.9
pytz==2015.7
requests==2.8.1
requests-oauthlib==0.5.0
rules==1.1.1
shortuuid==0.4.2
six==1.10.0
sorl-thumbnail==12.3
sphinx-me==0.3
sqlparse==0.1.18
strudel==0.2.4
tablib==0.11.2
tolerance==0.1.2
ufw==0.34-rc-0ubuntu2
unattended-upgrades==0.1
urllib3==1.7.1
virtualenv==15.0.2
wheel==0.24.0
xlrd==0.9.4