<?xml version="1.0" encoding="utf-8"?>
<!-- Generator: Adobe Illustrator 20.0.0, SVG Export Plug-In . SVG Version: 6.00 Build 0)  -->
<svg version="1.1" id="Layer_1" xmlns="http://www.w3.org/2000/svg" xmlns:xlink="http://www.w3.org/1999/xlink" x="0px" y="0px"
	 viewBox="0 0 636.7 570.8" style="enable-background:new 0 0 636.7 570.8;" xml:space="preserve">
<style type="text/css">
	.st0{fill:none;}
	.st1{opacity:0.7;}
	.st2{fill:#FFFFFF;}
	.st3{opacity:0.8;}
	.st4{opacity:0.2;}
	.st5{opacity:0.5;}
	.st6{opacity:0.55;}
	.st7{opacity:0.6;}
	.st8{opacity:0.35;}
	.st9{fill:url(#SVGID_1_);}
</style>
<pattern  x="-123.3" y="-1612.2" width="322.5" height="502.6" patternUnits="userSpaceOnUse" id="Drops_2" viewBox="49.2 -597.9 322.5 502.6" style="overflow:visible;">
	<g>
		<rect x="49.2" y="-597.9" class="st0" width="322.5" height="502.6"/>
		<g>
			<g class="st1">
				<path class="st2" d="M354.8-102.5c0,0-5.8,15.7-14.9,32c-7.8,14.1-18.1,27.8-17.4,40.3C324.2-2.3,346.3,0,356.1,0
					c9.8,0,31.2-5.1,31.4-29.8c0.1-14-8.2-24.2-17-40.5C364.1-82.1,358.2-94.4,354.8-102.5"/>
			</g>
			<g class="st3">
				<path class="st2" d="M229.3-102.1c0,0-3.4,9.2-8.7,18.7c-4.6,8.2-10.6,16.2-10.2,23.5c1,16.3,13.9,17.7,19.6,17.7
					c5.7,0,18.2-3,18.4-17.4c0.1-8.2-4.8-14.1-10-23.7C234.7-90.2,231.3-97.4,229.3-102.1"/>
			</g>
			<g class="st4">
				<path class="st2" d="M254.9-93.6c0,0-4.4-11.9-11.3-24.2c-5.9-10.7-13.7-21-13.2-30.5c1.2-21.2,18-22.9,25.4-22.9
					c7.4,0,23.6,3.8,23.8,22.5c0.1,10.6-6.2,18.3-12.9,30.7C261.9-109.1,257.4-99.8,254.9-93.6"/>
			</g>
			<path class="st2" d="M366.4-207c0,0-4.1,10.9-10.4,22.3c-5.5,9.8-12.6,19.4-12.1,28c1.1,19.5,16.6,21.1,23.4,21.1
				c6.8,0,21.7-3.5,21.9-20.7c0.1-9.7-5.7-16.8-11.9-28.2C372.8-192.8,368.7-201.4,366.4-207"/>
			<g class="st5">
				<path class="st2" d="M308.7-220c0,0-3.4,9.2-8.7,18.7c-4.6,8.2-10.6,16.2-10.2,23.5c1,16.3,13.9,17.7,19.6,17.7
					c5.7,0,18.2-3,18.4-17.4c0.1-8.2-4.8-14.1-10-23.7C314.1-208,310.7-215.3,308.7-220"/>
			</g>
			<path class="st2" d="M330.8-110.9c0,0-1.5-4.1-3.9-8.4c-2-3.7-4.7-7.3-4.5-10.5c0.4-7.3,6.2-7.9,8.8-7.9c2.5,0,8.1,1.3,8.2,7.8
				c0,3.6-2.1,6.3-4.5,10.6C333.2-116.2,331.7-113,330.8-110.9"/>
			<g class="st6">
				<path class="st2" d="M297.7-139.6c0,0-4.4,11.9-11.2,24.1c-5.9,10.6-13.7,21-13.1,30.4c1.2,21.1,17.9,22.9,25.3,22.9
					c7.4,0,23.5-3.8,23.7-22.5c0.1-10.5-6.2-18.2-12.9-30.6C304.7-124.1,300.2-133.5,297.7-139.6"/>
			</g>
		</g>
		<g>
			<g class="st7">
				<path class="st2" d="M98.7-177.3c0,0-7.2,19.3-18.3,39.3c-9.6,17.3-22.3,34.2-21.3,49.5c2,34.4,29.2,37.2,41.2,37.2
					c12,0,38.3-6.2,38.6-36.6c0.2-17.2-10.1-29.7-21-49.8C110.1-152.2,102.8-167.3,98.7-177.3"/>
			</g>
			<g class="st1">
				<path class="st2" d="M32.3-102.5c0,0-5.8,15.7-14.9,32C9.6-56.5-0.7-42.8,0-30.3C1.7-2.3,23.8,0,33.6,0C43.3,0,64.8-5.1,65-29.8
					c0.1-14-8.2-24.2-17-40.5C41.6-82.1,35.6-94.4,32.3-102.5"/>
			</g>
			<g class="st3">
				<path class="st2" d="M191.3-171.3c0,0-3.4,9.2-8.7,18.7c-4.6,8.2-10.6,16.2-10.2,23.5c1,16.3,13.9,17.7,19.6,17.7
					c5.7,0,18.2-3,18.4-17.4c0.1-8.2-4.8-14.1-10-23.7C196.7-159.3,193.3-166.5,191.3-171.3"/>
			</g>
			<g class="st4">
				<path class="st2" d="M146.4-122.2c0,0-4.4-11.9-11.3-24.2c-5.9-10.7-13.7-21-13.2-30.5c1.2-21.2,18-22.9,25.4-22.9
					c7.4,0,23.6,3.8,23.8,22.5c0.1,10.6-6.2,18.3-12.9,30.7C153.4-137.7,148.9-128.3,146.4-122.2"/>
			</g>
			<g class="st8">
				<path class="st2" d="M168.7-104.1c0,0-4.4,11.9-11.2,24.1c-5.9,10.6-13.7,21-13.1,30.4c1.2,21.1,17.9,22.9,25.3,22.9
					c7.4,0,23.5-3.8,23.7-22.5c0.1-10.5-6.2-18.2-12.9-30.6C175.7-88.7,171.2-98,168.7-104.1"/>
			</g>
			<path class="st2" d="M43.8-207c0,0-4.1,10.9-10.4,22.3c-5.5,9.8-12.6,19.4-12.1,28c1.1,19.5,16.6,21.1,23.4,21.1
				c6.8,0,21.7-3.5,21.9-20.7c0.1-9.7-5.7-16.8-11.9-28.2C50.3-192.8,46.2-201.4,43.8-207"/>
		</g>
		<g>
			<g class="st7">
				<path class="st2" d="M259.9-428.6c0,0-7.2,19.3-18.3,39.3c-9.6,17.3-22.3,34.2-21.3,49.5c2,34.4,29.2,37.2,41.2,37.2
					c12,0,38.3-6.2,38.6-36.6c0.2-17.2-10.1-29.7-21-49.8C271.3-403.5,264-418.6,259.9-428.6"/>
			</g>
			<g class="st1">
				<path class="st2" d="M193.6-353.8c0,0-5.8,15.7-14.9,32c-7.8,14.1-18.1,27.8-17.4,40.3c1.6,28,23.8,30.3,33.6,30.3
					c9.8,0,31.2-5.1,31.4-29.8c0.1-14-8.2-24.2-17-40.5C202.8-333.4,196.9-345.8,193.6-353.8"/>
			</g>
			<g class="st3">
				<path class="st2" d="M352.6-422.6c0,0-3.4,9.2-8.7,18.7c-4.6,8.2-10.6,16.2-10.2,23.5c1,16.3,13.9,17.7,19.6,17.7
					c5.7,0,18.2-3,18.4-17.4c0.1-8.2-4.8-14.1-10-23.7C358-410.6,354.5-417.9,352.6-422.6"/>
			</g>
			<g class="st3">
				<path class="st2" d="M68-353.4c0,0-3.4,9.2-8.7,18.7c-4.6,8.2-10.6,16.2-10.2,23.5c1,16.3,13.9,17.7,19.6,17.7
					c5.7,0,18.2-3,18.4-17.4c0.1-8.2-4.8-14.1-10-23.7C73.5-341.5,70-348.7,68-353.4"/>
			</g>
			<g class="st4">
				<path class="st2" d="M307.6-373.5c0,0-4.4-11.9-11.3-24.2c-5.9-10.7-13.7-21-13.2-30.5c1.2-21.2,18-22.9,25.4-22.9
					c7.4,0,23.6,3.8,23.8,22.5c0.1,10.6-6.2,18.3-12.9,30.7C314.6-389,310.2-379.7,307.6-373.5"/>
			</g>
			<g class="st4">
				<path class="st2" d="M93.6-345c0,0-4.4-11.9-11.3-24.2c-5.9-10.7-13.7-21-13.2-30.5c1.2-21.2,18-22.9,25.4-22.9
					c7.4,0,23.6,3.8,23.8,22.5c0.1,10.6-6.2,18.3-12.9,30.7C100.6-360.4,96.1-351.1,93.6-345"/>
			</g>
			<path class="st2" d="M286.2-263.2c0,0-1.5-4.1-3.9-8.4c-2-3.7-4.7-7.3-4.5-10.5c0.4-7.3,6.2-7.9,8.8-7.9c2.5,0,8.1,1.3,8.2,7.8
				c0,3.6-2.1,6.3-4.5,10.6C288.6-268.5,287.1-265.3,286.2-263.2"/>
			<g class="st8">
				<path class="st2" d="M329.9-355.4c0,0-4.4,11.9-11.2,24.1c-5.9,10.6-13.7,21-13.1,30.4c1.2,21.1,17.9,22.9,25.3,22.9
					c7.4,0,23.5-3.8,23.7-22.5c0.1-10.5-6.2-18.2-12.9-30.6C336.9-340,332.5-349.3,329.9-355.4"/>
			</g>
			<path class="st2" d="M205.1-458.3c0,0-4.1,10.9-10.4,22.3c-5.5,9.8-12.6,19.4-12.1,28c1.1,19.5,16.6,21.1,23.4,21.1
				c6.8,0,21.7-3.5,21.9-20.7c0.1-9.7-5.7-16.8-11.9-28.2C211.5-444.1,207.4-452.7,205.1-458.3"/>
			<path class="st2" d="M256-272.2c0,0-4.4,11.7-11.1,23.9c-5.9,10.5-13.5,20.8-13,30.1c1.2,20.9,17.8,22.7,25.1,22.7
				c7.3,0,23.3-3.8,23.5-22.2c0.1-10.4-6.1-18.1-12.7-30.3C262.9-256.9,258.5-266.1,256-272.2"/>
			<g class="st5">
				<path class="st2" d="M147.5-471.3c0,0-3.4,9.2-8.7,18.7c-4.6,8.2-10.6,16.2-10.2,23.5c1,16.3,13.9,17.7,19.6,17.7
					c5.7,0,18.2-3,18.4-17.4c0.1-8.2-4.8-14.1-10-23.7C152.9-459.4,149.4-466.6,147.5-471.3"/>
			</g>
			<g class="st4">
				<path class="st2" d="M118.2-221c0,0-4.4-11.9-11.3-24.2c-5.9-10.7-13.7-21-13.2-30.5c1.2-21.2,18-22.9,25.4-22.9
					c7.4,0,23.6,3.8,23.8,22.5c0.1,10.6-6.2,18.3-12.9,30.7C125.2-236.4,120.7-227.1,118.2-221"/>
			</g>
			<path class="st2" d="M169.5-362.2c0,0-1.5-4.1-3.9-8.4c-2-3.7-4.7-7.3-4.5-10.5c0.4-7.3,6.2-7.9,8.8-7.9c2.5,0,8.1,1.3,8.2,7.8
				c0,3.6-2.1,6.3-4.5,10.6C171.9-367.5,170.4-364.3,169.5-362.2"/>
			<g class="st6">
				<path class="st2" d="M136.4-390.9c0,0-4.4,11.9-11.2,24.1c-5.9,10.6-13.7,21-13.1,30.4c1.2,21.1,17.9,22.9,25.3,22.9
					c7.4,0,23.5-3.8,23.7-22.5c0.1-10.5-6.2-18.2-12.9-30.6C143.4-375.5,139-384.8,136.4-390.9"/>
			</g>
		</g>
		<g>
			<g class="st1">
				<path class="st2" d="M354.8-605.2c0,0-5.8,15.7-14.9,32c-7.8,14.1-18.1,27.8-17.4,40.3c1.6,28,23.8,30.3,33.6,30.3
					c9.8,0,31.2-5.1,31.4-29.8c0.1-14-8.2-24.2-17-40.5C364.1-584.7,358.2-597.1,354.8-605.2"/>
			</g>
			<g class="st3">
				<path class="st2" d="M229.3-604.7c0,0-3.4,9.2-8.7,18.7c-4.6,8.2-10.6,16.2-10.2,23.5c1,16.3,13.9,17.7,19.6,17.7
					c5.7,0,18.2-3,18.4-17.4c0.1-8.2-4.8-14.1-10-23.7C234.7-592.8,231.3-600,229.3-604.7"/>
			</g>
			<g class="st4">
				<path class="st2" d="M254.9-596.3c0,0-4.4-11.9-11.3-24.2c-5.9-10.7-13.7-21-13.2-30.5c1.2-21.2,18-22.9,25.4-22.9
					c7.4,0,23.6,3.8,23.8,22.5c0.1,10.6-6.2,18.3-12.9,30.7C261.9-611.7,257.4-602.4,254.9-596.3"/>
			</g>
			<g class="st4">
				<path class="st2" d="M279.5-472.3c0,0-4.4-11.9-11.3-24.2c-5.9-10.7-13.7-21-13.2-30.5c1.2-21.2,18-22.9,25.4-22.9
					c7.4,0,23.6,3.8,23.8,22.5c0.1,10.6-6.2,18.3-12.9,30.7C286.5-487.8,282-478.4,279.5-472.3"/>
			</g>
			<g class="st6">
				<path class="st2" d="M297.7-642.2c0,0-4.4,11.9-11.2,24.1c-5.9,10.6-13.7,21-13.1,30.4c1.2,21.1,17.9,22.9,25.3,22.9
					c7.4,0,23.5-3.8,23.7-22.5c0.1-10.5-6.2-18.2-12.9-30.6C304.7-626.8,300.2-636.1,297.7-642.2"/>
			</g>
		</g>
		<g>
			<g class="st7">
				<path class="st2" d="M98.7-679.9c0,0-7.2,19.3-18.3,39.3c-9.6,17.3-22.3,34.2-21.3,49.5c2,34.4,29.2,37.2,41.2,37.2
					c12,0,38.3-6.2,38.6-36.6c0.2-17.2-10.1-29.7-21-49.8C110.1-654.8,102.8-670,98.7-679.9"/>
			</g>
			<g class="st1">
				<path class="st2" d="M32.3-605.2c0,0-5.8,15.7-14.9,32C9.6-559.1-0.7-545.4,0-532.9c1.6,28,23.8,30.3,33.6,30.3
					c9.8,0,31.2-5.1,31.4-29.8c0.1-14-8.2-24.2-17-40.5C41.6-584.7,35.6-597.1,32.3-605.2"/>
			</g>
			<path class="st2" d="M125-514.5c0,0-1.5-4.1-3.9-8.4c-2-3.7-4.7-7.3-4.5-10.5c0.4-7.3,6.2-7.9,8.8-7.9c2.5,0,8.1,1.3,8.2,7.8
				c0,3.6-2.1,6.3-4.5,10.6C127.4-519.8,125.8-516.6,125-514.5"/>
			<g class="st8">
				<path class="st2" d="M168.7-606.7c0,0-4.4,11.9-11.2,24.1c-5.9,10.6-13.7,21-13.1,30.4c1.2,21.1,17.9,22.9,25.3,22.9
					c7.4,0,23.5-3.8,23.7-22.5c0.1-10.5-6.2-18.2-12.9-30.6C175.7-591.3,171.2-600.6,168.7-606.7"/>
			</g>
			<path class="st2" d="M94.8-523.5c0,0-4.4,11.7-11.1,23.9c-5.9,10.5-13.5,20.8-13,30.1c1.2,20.9,17.8,22.7,25.1,22.7
				c7.3,0,23.3-3.8,23.5-22.2c0.1-10.4-6.1-18.1-12.7-30.3C101.7-508.2,97.3-517.4,94.8-523.5"/>
		</g>
	</g>
</pattern>
<pattern  id="SVGID_1_" xlink:href="#Drops_2" patternTransform="matrix(1 0 0 1 -91.4153 1005.9415)">
</pattern>
<rect class="st9" width="636.7" height="570.8"/>
</svg>
